<?xml version="1.0" encoding="utf-8"?>
<!-- Generator: Adobe Illustrator 17.1.0, SVG Export Plug-In . SVG Version: 6.00 Build 0)  -->
<!DOCTYPE svg PUBLIC "-//W3C//DTD SVG 1.1//EN" "http://www.w3.org/Graphics/SVG/1.1/DTD/svg11.dtd">
<svg version="1.1" id="Layer_2" xmlns="http://www.w3.org/2000/svg" xmlns:xlink="http://www.w3.org/1999/xlink" x="0px" y="0px"
	 viewBox="0 0 153.4 152.9" enable-background="new 0 0 153.4 152.9" xml:space="preserve">
<g>
	<g>
		<path d="M131.1,21.7c1.4,0.8,2.8,2,4.3,3.8c0.8,1.3,1.5,2.5,2.1,3.8c0.6,1.3,1.4,2.5,2.4,3.8c1.7,2,3.3,4.5,4.6,7.3
			c1.3,2.8,2.5,5.5,3.4,8c0.8,2.7,1.7,5.4,2.6,8.3c0.9,2.8,1.6,5.7,1.9,8.5l0.9,10.6c0.2,1.3,0.1,2.6-0.1,4
			c-0.2,1.4-0.4,2.8-0.6,4.3c-0.5,8.7-2.7,17.1-6.6,25.3c-3.9,8.2-9,15.3-15.1,21.3c-6.8,6.3-14,11.3-21.7,14.9
			c-2.2,1.1-4.4,2.1-6.6,3c-2.2,0.9-4.4,1.5-6.6,2c-2,0.5-4.2,1-6.4,1.5c-2.2,0.6-4.3,0.8-6.4,0.6c-2.5-0.3-5-0.3-7.4,0
			c-2.4,0.3-4.9,0.3-7.4,0c-1.9-0.3-3.8-0.6-5.8-0.9c-2-0.3-3.8-0.8-5.6-1.4c-3.6-1.1-7.2-2.3-10.8-3.7c-3.5-1.3-6.9-3.1-10-5.3
			c-2.2-1.4-4.2-2.9-6-4.4c-1.8-1.5-3.7-3-5.6-4.6c-1.6-1.3-3-2.7-4.1-4.3c-1.2-1.6-2.5-3.1-3.9-4.5c-1.4-1.4-2.6-3-3.5-4.6
			c-0.9-1.7-2-3.3-3.1-5.1c-0.8-1.6-1.7-3.2-2.6-4.8c-0.9-1.7-1.7-3.3-2.1-5.1c-0.5-2.2-1.1-4.4-1.9-6.5c-0.8-2.1-1.3-4.4-1.7-6.7
			c-0.3-1.9-0.7-3.9-1.2-5.9c-0.5-2-0.6-4.1-0.2-6.1c0.3-2.5,0.5-5,0.5-7.3c0-2.4,0.2-4.7,0.5-7.1c0.3-2.5,0.8-4.9,1.5-7.2
			c0.7-2.3,1.5-4.6,2.2-7c2.5-7.7,6.5-15,12-21.9c5.5-6.9,11.7-12.4,18.4-16.7c0.9-0.6,2-1.2,3.1-1.7c1.1-0.5,2.1-0.9,3.1-1.4
			l5.2-2.4c1.4-0.8,3.1-1.6,5-2.5c1.9-0.9,3.7-1.4,5.4-1.5c1.1,0,2.2-0.2,3.4-0.5c1.2-0.3,2.2-0.5,3.2-0.7c1.3-0.3,2.4-0.5,3.5-0.5
			c1.1,0,2.2-0.1,3.3-0.2C72.5,0.1,74.3,0,76.2,0c1.8,0,3.7,0,5.8,0C87.5,0.3,92.8,1.2,98,2.7c5.2,1.5,10.2,3.6,14.9,6.3
			c4.7,2.4,9.1,5.4,13.2,9c0.8,0.8,1.6,1.5,2.5,2C129.5,20.5,130.3,21.1,131.1,21.7z M142.2,104.4c0.3-0.2,0.5-0.6,0.7-1.3
			c0.2-0.7,0.2-1.2,0.2-1.5c0-0.3,0.1-0.5,0.2-0.7c0.2-0.2,0.3-0.4,0.5-0.7c0.6-0.9,1.1-2.2,1.3-3.8c0.2-1.6,0.5-2.9,0.8-4
			c0.5-2.7,0.9-5.3,1.3-7.8c0.4-2.5,0.6-5.1,0.6-7.8l-0.7-6.9c0-1.3-0.1-2.4-0.4-3.5c-0.2-1.1-0.4-2.2-0.4-3.3
			c-0.2-2.2-0.7-4.6-1.7-7.1c-0.9-2.5-1.8-4.8-2.6-6.9c-1.6-4.6-3.8-8.7-6.6-12.3c-2.8-3.6-5.8-7.2-9-10.9c-3.2-3.5-6.7-6.5-10.8-9
			c-4-2.5-8.2-4.6-12.4-6.4C99.7,9.1,95.5,7.8,91,6.7c-4.5-1-8.9-1.5-13.1-1.5c-4.4,0-8.9,0.4-13.5,1.1c-4.6,0.7-8.9,2-13,3.9
			c-3.5,1.6-6.9,3.2-10.4,4.8c-3.5,1.7-6.6,3.8-9.5,6.5c-2.8,2.8-5.8,5.7-8.7,8.5c-3,2.8-5.4,6.1-7.3,9.9c-1.7,3.6-3.5,7.3-5.2,11.1
			C8.6,54.8,7.5,58.8,7,62.8c-0.3,2.7-0.7,5.2-1.2,7.7c-0.5,2.4-0.6,5-0.2,7.7c0.3,1.1,0.4,2.2,0.2,3.2c-0.2,1-0.1,2.1,0.2,3.2
			c0.3,0.8,0.5,1.6,0.5,2.5c0,0.9,0.1,1.7,0.2,2.5C7,91.8,7.4,94,8.2,96.3c0.8,2.3,1.7,4.5,2.6,6.7c0.9,2.4,2,4.6,3.1,6.6
			c1.1,2,2.3,4.2,3.5,6.4c1.1,1.7,2.3,3.5,3.7,5.2c1.3,1.7,2.9,3.2,4.6,4.5c1.3,1.1,2.5,2.4,3.8,4c1.3,1.6,2.7,2.8,4.3,3.5
			c1.3,0.6,2.5,1.4,3.7,2.4c1.2,0.9,2.4,1.7,3.7,2.4c0.9,0.5,1.9,1,2.7,1.5c0.9,0.6,1.8,1,2.7,1.3c1.9,0.8,3.8,1.5,5.7,2.2
			c1.9,0.7,3.8,1.5,5.7,2.2c1.6,0.6,3.4,1,5.4,1.2c2,0.2,3.9,0.4,5.4,0.7c1.9,0.2,3.9,0.3,6,0.5c2.1,0.2,4.1,0.1,6-0.2
			c2-0.3,4.2-0.5,6.5-0.5c2.3,0,4.4-0.4,6.3-1.2l12.5-4.3c2.2-0.8,4.4-1.9,6.5-3.4c2.1-1.5,4.1-2.9,6-4.1c1.7-1.1,3.3-2.3,4.6-3.7
			c1.3-1.3,2.7-2.6,4.1-3.9c1.6-1.6,3.1-3.3,4.5-5.2c0.5-0.9,1.1-1.8,2-2.6c0.9-0.8,1.5-1.7,2-2.6l5.4-9.5l0.9-2.6V104.4z M76.7,7.6
			c1.4,0,2.8,0,4.1,0c1.3,0,2.7,0.2,4.1,0.5c1.3,0.2,2.4,0.3,3.4,0.4c1,0.1,2.2,0.3,3.4,0.6c2.2,0.5,4.5,1.1,7,2
			c2.4,0.9,4.7,1.9,6.7,3c2,1.1,4.1,2.2,6,3.2c2,1,3.8,2.2,5.6,3.7c1.7,1.7,3.5,3.3,5.4,4.7c1.9,1.4,3.7,3,5.4,4.7
			c1.4,1.6,2.7,3.2,3.8,5c1.1,1.7,2.3,3.5,3.5,5.2c2.7,4.3,4.8,8.9,6.5,14.1c1.7,5.1,2.8,10.3,3.4,15.5c0.3,2.4,0.4,4.7,0.1,7
			c-0.2,2.3-0.4,4.6-0.4,7c-0.2,2.2-0.5,4.3-1.1,6.1c-0.6,1.9-0.9,3.9-1.1,6.1c-0.2,1.1-0.5,2.2-1.1,3.2c-0.6,1-1.1,2.1-1.5,3.2
			c-0.3,0.9-0.7,2-1.1,3.1c-0.4,1.1-0.8,2.1-1.3,3.1c-1.1,1.9-2.4,3.7-3.8,5.4c-1.4,1.7-2.6,3.5-3.5,5.4c-0.9,1.7-2.3,3.4-4.1,4.8
			c-1.8,1.5-3.4,3-4.8,4.4c-1.4,1.3-3,2.4-4.6,3.3c-1.7,0.9-3.3,2-4.8,3.3c-0.8,0.8-1.7,1.3-2.8,1.7c-1.1,0.3-2.1,0.8-3.1,1.4
			c-0.9,0.6-1.9,1.2-3,1.7c-1,0.5-2.1,0.8-3.2,0.9c-1.3,0.3-2.4,0.7-3.3,1.3c-0.9,0.6-2,0.8-3.3,0.8c-0.8,0-1.7,0.2-2.8,0.5
			c-1.1,0.3-2,0.6-2.8,0.9c-2.2,0.6-4.6,0.9-7.1,0.9c-2.5,0-4.8-0.1-6.9-0.2c-1.3,0-2.4,0-3.5-0.1c-1.1-0.1-2.3-0.3-3.5-0.6
			c-1.1-0.2-2.2-0.3-3.4-0.4c-1.2-0.1-2.2-0.3-3-0.6c-1.1-0.5-2.1-0.8-3.1-0.9c-0.9-0.2-2-0.6-3.1-1.2c-0.5-0.3-1.1-0.6-2-0.8
			c-0.9-0.2-1.6-0.4-2.2-0.6c-0.8-0.2-1.7-0.6-2.8-1.3c-1.1-0.7-2-1.3-2.8-1.8c-0.9-0.5-1.9-0.9-2.8-1.4c-0.9-0.5-1.8-1-2.6-1.7
			c-1.9-1.4-3.9-2.8-5.9-4c-2-1.3-3.8-2.8-5.2-4.7c-0.5-0.8-1.1-1.5-1.9-2c-0.8-0.6-1.4-1.2-1.9-2c-0.5-0.8-0.9-1.5-1.4-2.2
			c-0.5-0.7-1.1-1.4-1.9-2c-0.8-0.8-1.5-1.7-2.1-2.7c-0.6-1-1.1-1.9-1.4-2.7l-2.4-4.7c-1.1-1.7-1.9-3.5-2.4-5.3
			c-0.5-1.8-1-3.6-1.7-5.3c-0.9-1.9-1.6-4-1.9-6.3c-0.3-2.3-0.6-4.4-0.9-6.5c0-0.9,0-1.8,0-2.7c0-0.9-0.1-1.8-0.2-2.7
			c-0.3-2-0.2-3.9,0.2-5.4c0.3-1.1,0.4-2.3,0.4-3.5c-0.1-1.3,0-2.4,0.4-3.5c0.2-1.1,0.3-2.2,0.5-3.3c0.2-1.1,0.4-2.2,0.7-3.3
			c0.8-1.9,1.5-3.8,2.2-5.7c0.7-1.9,1.5-3.8,2.2-5.7c1.6-3.9,3.5-7.5,5.9-10.8c2.4-3.2,5-6.4,7.8-9.6c0.8-0.8,1.7-1.5,2.8-2.2
			c1.1-0.7,2-1.5,2.8-2.2c0.6-0.8,1.3-1.3,2-1.7c0.7-0.3,1.4-0.9,2-1.7c1.3-1.4,3.1-2.7,5.6-3.8c2.4-1.1,4.5-1.9,6.3-2.4
			c2.4-0.9,4.7-1.9,7.1-2.8c2.4-0.9,4.7-1.6,7.1-1.9C66,8.2,68.1,8,70.2,7.8C72.4,7.6,74.5,7.6,76.7,7.6z M143.6,76.6
			c0-0.8,0-1.6-0.1-2.4c-0.1-0.8-0.2-1.6-0.4-2.4l-1.2-7.6c-0.2-1.3-0.4-2.6-0.6-4c-0.2-1.4-0.6-2.7-1.1-3.8c-1.1-2.2-2.1-4.4-3-6.7
			c-0.9-2.3-1.9-4.5-3-6.7c-2.4-4.3-5.2-8.2-8.6-11.8c-3.4-3.6-7.1-6.8-11-9.5c-7.6-5-15.5-8.5-23.9-10.4c-8.4-1.9-16.9-2-25.8-0.5
			c-2.2,0.5-4.5,1-6.7,1.5c-2.3,0.6-4.6,1.3-7,2.2c-0.9,0.3-1.9,0.7-3,1.3c-1,0.6-2.1,1.1-3.2,1.5c-0.9,0.5-1.8,1-2.6,1.7
			c-0.8,0.6-1.7,1.3-2.6,1.9c-1.9,0.9-3.5,2.1-4.8,3.5c-1.3,1.4-2.9,2.7-4.6,3.8c-1.6,0.9-2.9,2.2-3.9,3.8c-1,1.6-2.2,3-3.7,4.3
			c-0.8,0.8-1.4,1.8-1.9,3c-0.5,1.2-1.1,2.2-1.9,3.2c-0.5,0.9-1,1.9-1.7,2.8c-0.6,0.9-1.1,1.9-1.4,2.8c-0.8,1.7-1.6,3.4-2.4,5.1
			c-0.8,1.7-1.2,3.3-1.2,5.1c-0.3,1.3-0.7,2.5-1.2,3.8c-0.5,1.3-0.7,2.6-0.7,4c0,1.3-0.1,2.4-0.4,3.4c-0.2,1-0.4,2.2-0.6,3.4
			c0,1.3,0,2.5,0.1,3.7c0.1,1.2,0,2.4-0.1,3.7c0,0.9,0.2,1.9,0.5,2.7c0.3,0.9,0.5,1.7,0.5,2.5c0,1.7,0.2,3.5,0.6,5.2
			c0.4,1.7,0.8,3.5,1.3,5.2c0.8,2.2,1.7,4.2,2.6,6c0.9,1.8,1.8,3.7,2.6,5.8c1.4,3.2,3.5,6.3,6.1,9.5c1.4,1.6,2.8,3.2,4,4.8
			c1.3,1.7,2.8,3.2,4.5,4.6c3.1,2.7,6.4,5,9.8,6.9c3.4,1.9,6.9,3.7,10.5,5.4c3.9,1.7,8.1,2.8,12.5,3.3c4.4,0.5,8.7,0.8,13,0.9
			c2.7,0,5.3-0.2,7.9-0.7c2.6-0.5,5.2-1,7.7-1.7c1.9-0.3,3.9-0.9,6.1-1.7c2.2-0.8,4.2-1.7,5.9-2.8c1.7-1.1,3.5-2.2,5.3-3.2
			c1.8-1,3.6-2.2,5.3-3.4c1.4-1.3,3-2.6,4.8-3.9c1.8-1.3,3.3-2.9,4.6-4.6c2.2-3.1,4.6-6.3,7.1-9.6c2.5-3.2,4.3-6.7,5.4-10.5
			c1.3-4.1,2.4-8.2,3.4-12.2C143.1,84.9,143.6,80.8,143.6,76.6z M141.2,105.1l0.9-1.2c0.6-1.3,0.9-2,0.9-2.4
			c-0.3,0.6-0.6,1.2-0.9,1.8C141.9,103.9,141.6,104.5,141.2,105.1z"/>
	</g>
	<g id="jhYoIJ_3_">
		<g>
			<path fill-rule="evenodd" clip-rule="evenodd" d="M97.1,101.3c0.6,0.7,0.1,1.1-0.4,1.6c-1.1,1.1-2.2,2.3-3.3,3.4
				c-1.1,1-2.3,1.8-3.4,2.7c-1.3,1.1-2.6,2.2-3.9,3.2c-0.7,0.6-1.5,1.1-2.3,1.5c-2.6,1.2-4.6,3.6-6.6,5.6c-0.5,0.5-1.1,1-1.8,1.2
				c-2.2,0.9-4.8,1.6-7.2,0.9c-0.8-0.2-1.7-0.3-2.5-0.5c-1.7-0.4-3.3-1-5-1.4c-0.9-0.2-1.8-0.3-2.7-0.5c-0.2,0-0.4,0-0.7-0.1
				c-3.4-1-6.7-1.9-10.1-2.9c-0.8-0.2-1.7-0.2-2.4-0.6c-2-1-3.6-0.9-5.7-1.3c-1.6-0.3-3.6-0.8-5.2-1.3c-1.3-0.4-3.2-1.6-4.4-2.2
				c-0.8-0.4-1.5-1.1-2-1.8c-1.1-1.6-1.5-3.4-1.6-5.4c-0.1-0.7,0-1.5,0.1-2.2c0.2-1.1,0.6-2.1,1-3.2c0.2-0.5,0.6-1,1.1-1.4
				c1.4-1.1,2.8-2.1,4.2-3.1c0.2-0.1,0.5-0.1,0.8-0.1c0,0.1,0.1,0.2,0.1,0.3c-1.4,1.2-2.9,2.4-4.3,3.6c-1.1,0.9-1.5,2-0.9,3.3
				c0.6,1.2,1.5,1.9,2.8,2.2c1.4,0.3,3.2,0.3,4.5,0.8c0.9,0.3,2.2,0.8,3.1,1.2c1.1,0.4,1.8,1,2.9,1.2c3.2,0.3,5.8,1.3,8.7,2.8
				c0.5,0.2,1,0.4,1.5,0.5c3.5,0.8,7,1.4,10.3,2.6c2.6,0.9,5.2,1.4,8,1.2c0.7-0.1,1.5-0.3,2.2-0.6c2.3-1.1,4.7-2.2,6.9-3.5
				c1.7-1,3.5-1.9,4.9-3.4c0.2-0.2,0.7-0.3,1.1-0.3c0.1,0,0.4,0.4,0.4,0.4c-0.2,0.3-0.4,0.6-0.7,0.8c-1.3,1-2.6,1.9-3.8,2.9
				c-0.5,0.4-1,0.8-1.4,0.2c-1.2,0.7-2.3,1.3-3.5,1.9c-1.4,0.8-2.7,1.6-4.1,2.2c-2.4,1-4.8,0.7-7.2,0c-2.8-0.8-5.5-1.7-8.3-2.5
				c-1.4-0.4-3-0.5-4.4-0.9c-1.6-0.5-3.3-1-4.8-1.8c-2-1-4.1-1.1-6.3-1.4c-1.5-0.2-2.9-0.7-4.3-1.4c-1.5-0.8-3.3-1.4-5-1.8
				c-1.9-0.4-3.5-1.1-4.6-3c-0.1,0.5-0.2,0.7-0.2,0.9c0.2,2.4,0.9,4.7,2.5,6.5c0.7,0.8,2.1,1.1,3.1,1.6c1,0.4,2,0.7,3,1.2
				c1.6,0.9,3.3,1,5,1.2c1.9,0.3,3.7,0.8,5.5,1.5c2.2,0.8,4.6,1.3,6.9,2c1.3,0.3,2.6,0.6,3.9,0.9c1.4,0.3,2.8,0.5,4.3,0.9
				c1.9,0.5,3.8,1,5.7,1.5c0.9,0.2,1.8,0.5,2.7,0.6c2.3,0.3,4.5-0.1,6.3-1.8c2.3-2.2,4.8-4,7.5-5.8c2.6-1.8,5-3.9,7.4-5.9
				c1.8-1.5,3.6-3.2,5.3-4.9c-1.5,0.4-3,0.8-4.5,1.1c-4.3,1.1-8.5,2.3-12.8,3.4c-3,0.8-6.1,1.5-9.1,2.4c-2.4,0.7-4.6,0.4-7-0.2
				c-2.1-0.6-4.1-1.4-5.9-2.5c-1-0.6-1.8-1.4-2.8-2.1c-0.5-0.4-1.1-0.6-1.7-0.9c-0.1-0.1-0.4-0.1-0.4-0.2c-0.9-2-2.9-2.5-4.6-3.3
				c-4.1-1.9-8.2-3.6-12.3-5.4c-1-0.4-2-0.9-2.9-1.5c-0.5-0.3-0.9-0.9-1.2-1.5c-1.2-2-1.3-4.1-1.1-6.3c0.1-1,0-2,0.2-2.9
				c0.3-2.6,2.2-4.2,4.3-5.1c3.1-1.4,6.6-1.9,10-2.4c2-0.3,3.9-0.5,5.9-0.8c4-0.6,7.9-1.2,11.9-1.9c1.4-0.3,2.8-0.8,4.2-1.3
				c1.7-0.5,3.3-0.4,4.9,0.6c0.4,0.3,0.9,0.5,1.4,0.7c2.1,0.9,4.2,1.8,6.3,2.6c2.2,0.9,4.4,1.7,6.7,2.4c1,0.3,2,0.5,3,0.8
				c3.8,1,7.6,1.9,11.4,3c2.7,0.8,5.3,1.8,7.6,3.3c1.1,0.7,1.5,1.7,1.8,3c0.5,1.9,0.4,3.8,0.4,5.6c-0.1,1.8-0.3,3.6-1.2,5.3
				c-1,1.8-2.5,2.5-4.3,3C102,100.5,99.6,100.8,97.1,101.3z M108,86c0.2-0.8-0.4-1.5-1.1-1.8c-2.4-1-4.8-2.1-7.2-2.9
				c-3.8-1.2-7.7-2.1-11.6-3.2c-1.1-0.3-2.1-0.6-3.1-1c-2.2-0.8-4.3-1.7-6.4-2.5c-2.1-0.8-4.3-1.6-6.4-2.4c-0.5-0.2-1-0.4-1.5-0.6
				c-1-0.6-2.1-0.8-3.2-0.5c-0.8,0.2-1.5,0.3-2.3,0.4c-2.3,0.3-4.6,0.7-6.9,1.1c-3.3,0.6-6.6,1.2-10,1.8c-3.1,0.5-6.2,1-9.3,1.6
				c-2.5,0.4-4.7,1.2-6.5,3.1c-1.7,1.8-1.7,4.1,0.4,5.4c1.1,0.7,2.5,1.2,3.7,1.8c0.8,0.4,1.6,1,2.5,1.3c2.2,0.8,4.3,1.5,6.5,2.2
				c3.2,1,6.2,2.3,9.1,3.9c2,1.1,3.9,2.2,5.6,3.7c1.8,1.5,3.9,1.6,6.2,1.3c3.1-0.5,5.1-1.3,8.1-2c0.2,0,1.7-0.1,1.8-0.2
				c1.5-0.6,2.6-0.9,4.2-1.4c1.3-0.5,2.6-0.7,3.9-1.2c4.1-1.7,9-1.8,13.3-2.7c3-0.7,5.4-2.2,8.4-2.9C107.8,87.8,108,87.5,108,86z
				 M108.7,88.6c-3.1,1.1-5.4,3.1-8.6,3.5c-4,0.4-8,1.3-11.8,2.6c-3.4,1.1-7.1,1.7-10.6,2.6c-3.6,1-7.3,1.6-11,2.4
				c-2.6,0.6-5.1,0-7.2-1.6c-1.7-1.3-3.3-2.5-5.2-3.4c-3.1-1.5-6-3.3-9.3-4.1c-0.8-0.2-1.6-0.3-2.3-0.6c-2.1-0.8-4.1-1.7-6.1-2.5
				c-2-0.8-4.2-1.4-5.9-2.9c-0.5,2.2,0.1,4.8,1.6,6c0.9,0.7,2.1,1.1,3.2,1.6c3.2,1.5,6.4,2.9,9.6,4.3c1.1,0.5,2.2,0.9,3.1,1.6
				c2.8,1.9,5.6,3.9,8.4,5.8c1.7,1,3.5,1.9,5.4,2.5c2.3,0.8,4.6,1.3,7.1,0.6c1.6-0.5,3.2-0.9,4.8-1.3c3.3-0.8,6.6-1.5,9.8-2.3
				c1.7-0.4,3.4-1.1,5.1-1.6c3.8-1.2,7.6-2.2,11.5-2.4c1.4-0.1,2.9-0.3,4.3-0.8c2.5-0.9,3.6-3.1,3.9-5.7
				C108.9,91.5,108.7,90.1,108.7,88.6z"/>
			<path fill-rule="evenodd" clip-rule="evenodd" d="M136.4,90.2c-1,0.2-1.9,0.5-2.8,0.9c-3,1.4-6.1,2.6-9,4.4c-1.3,0.8-3,1-4.6,1.5
				c0.8-4.7,0.6-9.2,0.8-13.8c0.1-4.1,0.2-8.3,0.5-12.4c0.1-1.5,0.8-3,1.2-4.6c0.6-1.9,1-3.8,0.4-5.9c-0.2-0.8-0.1-1.7-0.1-2.5
				c0-2-0.2-3.9-1.3-5.6c-0.7-1.1-1.8-1.5-2.7-2.1c-1.4-0.8-3-1.5-4.4-2.3c-0.7-0.4-1.5-0.7-2.2-1c-0.6-0.3-1.3-0.5-1.9-0.8
				c-1.2-0.5-2.6-0.9-3.7-1.7c-1.8-1.4-4.1-1.1-5.9-2.3c-1-0.7-2.1-1.3-3.2-1.9c1.7-0.5,3.5-1.1,5.3-1.6c4.3-1.4,8.5-2.8,12.8-4.1
				c0.3-0.1,0.6-0.2,0.9-0.2c-0.6-0.3-1.2-0.6-1.8-1c-4.9,1.6-9.9,3.3-14.8,4.9c-0.6,0.2-1.3,0.5-1.9,0.5c-2.6,0.3-5.2,0.8-7.5,1.9
				c-1.3,0.6-2.6,1.1-3.4,2.4c-1.2,2-3,4.4-2.6,6.8c0.1,0.9,0.3,2,0.4,2.9c0.1,3.5,0,6.3,0,8.3c0,1.2-0.2,1.8-0.2,2.9
				c-0.1,2.2,0,5,0,7.2c0,1.2,0.7,1.7,0.8,2.9c0,0.2,0.3,0.4,0.4,0.7c0.2-0.2,0.5-0.4,0.6-0.6c0.1-0.1,0.1-0.4,0.1-0.5
				c0.1-2,0.2-4,0.2-6.1c0.1-1.8-0.1-3.6,0.2-5.3c0.6-3.4,0.5-6.8,0.1-10.1c-0.4-2.8-0.9-5.6,1-8.2c0.6-0.8,1.2-1.5,2.1-1.8
				c0.9-0.2,1.9-0.3,2.9-0.6c2.2-0.7,4.1,0.1,5.9,1.1c1.4,0.8,2.7,1.7,4.5,2c0.9,0.1,1.7,0.8,2.5,1.1c2.6,1.2,5.2,2.3,7.8,3.6
				c1.4,0.6,2.6,1.5,4,2.1c1.7,0.8,2.8,1.8,3,3.8c0.1,1.1,0.1,2.3,0.5,3.4c0.7,2.4,1,4.7,0,7.1c-1.1,2.7-1.5,5.4-1.4,8.3
				c0.1,2.1-0.1,4.2-0.1,6.3c-0.1,3.7-0.2,7.4-0.2,11.2c0,1.7,0,3.4-0.7,5c-0.7,1.4-1.4,1.6-2.8,0.8c-1.3-0.7-2.6-1.2-4-1.7
				c-0.3-0.1-0.7,0.1-1.1,0.2c0.2,0.3,0.4,0.8,0.7,0.9c1.3,0.7,2.7,1.3,4.1,1.9c0.6,0.2,1.3,0.5,1.8,0.4c1.4-0.2,2.7-0.4,4.1-0.7
				c3.6-0.8,6.3-3.3,9.7-4.5c1.7-0.6,3.3-1.5,5-2.1C136.3,91.2,136.3,90.7,136.4,90.2z"/>
			<path fill-rule="evenodd" clip-rule="evenodd" d="M112.8,76.8c0-0.3-0.1-0.5,0-0.7c0.1-0.4,0.4-0.7,0.6-1
				c0.3,0.2,0.9,0.5,0.9,0.7c0.1,0.9,0.1,1.9,0.1,2.8c0,0.2-0.4,0.6-0.7,0.6c-0.1,0-0.5-0.3-0.6-0.6C112.9,78,112.9,77.4,112.8,76.8
				C112.8,76.8,112.8,76.8,112.8,76.8z"/>
			<path fill-rule="evenodd" clip-rule="evenodd" d="M30.6,108.2c-1.3-0.7-1.9-2.6-1.2-3.7c0.1-0.2,0.4-0.4,0.7-0.4
				c0.2,0,0.5,0.2,0.5,0.4C30.9,105.7,31,106.9,30.6,108.2z"/>
			<path fill-rule="evenodd" clip-rule="evenodd" d="M72.5,116.6c-0.1,0.6-0.1,1.2-0.3,1.8c0,0.2-0.2,0.4-0.4,0.4
				c-0.2,0-0.5-0.2-0.5-0.3c-0.1-1.1-0.2-2.3-0.2-3.4c0-0.1,0.4-0.4,0.5-0.4c0.2,0,0.6,0.2,0.6,0.4
				C72.4,115.7,72.4,116.2,72.5,116.6z"/>
			<path fill-rule="evenodd" clip-rule="evenodd" d="M113.8,89.5c0.5,0.1,1,0.2,1.5,0.4c0.6,0.3,0.6,0.9,0,1.3
				c-0.7,0.5-2.2,0.1-2.6-0.7C112.5,90,112.9,89.5,113.8,89.5z"/>
			<path fill-rule="evenodd" clip-rule="evenodd" d="M99.2,70.2c-0.3-0.2-0.8-0.4-0.8-0.7c-0.1-0.8-0.1-1.6,0-2.5
				c0-0.1,0.4-0.4,0.6-0.3c0.2,0,0.5,0.3,0.5,0.5c0,1,0,1.9,0,2.9C99.3,70.1,99.2,70.1,99.2,70.2z"/>
			<path fill-rule="evenodd" clip-rule="evenodd" d="M107.5,66.6c0.2-1.1,0.3-2,0.4-2.9c0-0.2,0.3-0.4,0.5-0.4
				c0.2,0,0.4,0.3,0.5,0.5C109.3,64.7,108.7,66,107.5,66.6z"/>
			<path fill-rule="evenodd" clip-rule="evenodd" d="M33.7,100.6c-1.3,0-2.3-1.1-2-1.9c0.1-0.2,0.7-0.3,0.7-0.2
				C32.9,99.1,33.2,99.8,33.7,100.6z"/>
			<path fill-rule="evenodd" clip-rule="evenodd" d="M93.2,68c-1.1,0.6-2.5-0.2-2.4-1.1c0-0.2,0.6-0.5,0.7-0.4
				C92,66.9,92.5,67.4,93.2,68z"/>
			<path fill-rule="evenodd" clip-rule="evenodd" d="M91.7,49.4c0.5-0.5,0.9-0.8,1.2-1.1c0.2,0.2,0.6,0.5,0.5,0.6
				c-0.2,0.6-0.5,1.1-0.7,1.6C92.4,50.2,92.2,49.8,91.7,49.4z"/>
			<path fill-rule="evenodd" clip-rule="evenodd" d="M102.8,62.2c-0.5-0.6-0.9-1-1.3-1.5c-0.1-0.1-0.1-0.5,0-0.6
				c0.1-0.1,0.5-0.2,0.7-0.1C103.1,60.2,103.4,61.1,102.8,62.2z"/>
			<path fill-rule="evenodd" clip-rule="evenodd" d="M40.2,99.1c-0.3-0.6-1.7-0.4-1.2-1.5c0.3-0.6,0.9-0.5,1.4-0.1
				C40.9,98,40.9,98.6,40.2,99.1z"/>
			<path fill-rule="evenodd" clip-rule="evenodd" d="M105.5,73.6c0,0.4,0,0.5-0.1,0.6c-0.2,0.4-0.4,0.8-0.7,1.1
				c-0.2-0.3-0.6-0.6-0.5-0.8c0.1-0.5,0.5-1,0.7-1.5C105.2,73.3,105.4,73.5,105.5,73.6z"/>
			<path fill-rule="evenodd" clip-rule="evenodd" d="M117.2,63c-0.5,0.3-0.9,0.7-0.9,0.6c-0.4-0.3-0.7-0.7-1-1.1
				c0.2-0.2,0.6-0.6,0.7-0.6C116.3,62.2,116.6,62.6,117.2,63z"/>
			<path fill-rule="evenodd" clip-rule="evenodd" d="M73.9,117.8c-0.8-0.6-0.5-1.4-0.4-2c0-0.1,0.3-0.3,0.4-0.3
				c0.2,0,0.4,0.2,0.5,0.4C74.6,116.5,74.5,117.2,73.9,117.8z"/>
			<path fill-rule="evenodd" clip-rule="evenodd" d="M50.2,102.9c-0.3,0.3-0.4,0.5-0.6,0.7c-0.3-0.4-0.7-0.8-0.9-1.2
				c-0.1-0.1,0.3-0.5,0.4-0.7C49.5,102,49.8,102.4,50.2,102.9z"/>
			<path fill-rule="evenodd" clip-rule="evenodd" d="M95.7,54.4c-0.2-0.3-0.4-0.6-0.5-0.9c0-0.3,0.1-0.6,0.2-1
				c0.3,0.2,0.7,0.4,0.8,0.7c0.1,0.3-0.1,0.7-0.2,1.1C96,54.4,95.8,54.4,95.7,54.4z"/>
			<path fill-rule="evenodd" clip-rule="evenodd" d="M106.2,56.1c-0.4,0.3-0.7,0.6-0.9,0.5c-0.4-0.1-0.7-0.4-0.9-0.8
				c-0.1-0.1,0.3-0.4,0.4-0.7C105.2,55.4,105.6,55.7,106.2,56.1z"/>
			<path fill-rule="evenodd" clip-rule="evenodd" d="M42.6,103c-0.4,0.2-0.7,0.5-0.9,0.4c-0.4-0.2-0.7-0.5-1-0.7
				c0.2-0.2,0.5-0.5,0.6-0.5C41.8,102.4,42.1,102.7,42.6,103z"/>
			<path fill-rule="evenodd" clip-rule="evenodd" d="M109.8,77.1c0.1,0.7-0.3,1-0.9,1.1c-0.1,0-0.3-0.2-0.5-0.3
				c0.4-0.4,0.7-0.7,1.1-1.1C109.6,76.9,109.7,77,109.8,77.1z"/>
			<path fill-rule="evenodd" clip-rule="evenodd" d="M59.6,88.8c0-0.5,0-0.9,0-1.2c0-1.1,0.1-2.3,0.1-3.4c0-0.2,0.1-0.5,0.3-0.7
				c0.1-0.1,0.5,0,0.6,0.1c0.9,0.9,0.8,2.1,0.7,3.2C61.1,87.6,60.8,88.4,59.6,88.8z"/>
			<path fill-rule="evenodd" clip-rule="evenodd" d="M39.6,81c0.3-0.8,0.5-1.5,0.8-2.1c0.1-0.2,0.6-0.4,0.8-0.3
				c0.2,0.1,0.4,0.5,0.4,0.7c0.1,1,0,1.9,0,2.9c0,0.2-0.1,0.5-0.2,0.5c-0.2,0.1-0.6,0.1-0.7-0.1C40.3,82.1,39.9,81.6,39.6,81z"/>
			<path fill-rule="evenodd" clip-rule="evenodd" d="M58.9,75.7c0.2,0.1,0.6,0.3,0.7,0.6c0.1,0.3-0.2,0.7-0.5,1
				c-0.3,0.3-0.6,0.6-0.9,0.8c-0.2,0.1-0.6,0.3-0.8,0.2c-0.2-0.1-0.4-0.5-0.4-0.8C56.9,76.6,57.8,75.7,58.9,75.7z"/>
			<path fill-rule="evenodd" clip-rule="evenodd" d="M94.4,87.8c-0.5-0.3-0.9-0.4-1.2-0.6c-0.4-0.4-0.3-0.7,0.3-0.9
				c0.5-0.2,1-0.4,1.6-0.5c0.2-0.1,0.5-0.1,0.6,0.1c0.1,0.1,0.2,0.5,0.1,0.7C95.4,86.9,94.9,87.3,94.4,87.8z"/>
			<path fill-rule="evenodd" clip-rule="evenodd" d="M67.6,90.1c0.4-0.5,0.6-0.8,0.9-1.1c0.3,0.3,0.6,0.6,0.9,0.9c0,0,0,0.1,0,0.1
				c0,0.4,0.1,0.9,0,1.3c0,0.1-0.6,0.2-0.8,0.1C68.2,91,68,90.6,67.6,90.1z"/>
			<path fill-rule="evenodd" clip-rule="evenodd" d="M49.5,81.8c-0.3,0.5-0.5,1-0.8,1c-0.7,0.1-1-0.4-1-1.1c0-0.6,0-1.4,0.7-1.3
				C48.8,80.4,49.1,81.2,49.5,81.8z"/>
			<path fill-rule="evenodd" clip-rule="evenodd" d="M76.3,93.8c-1,0-1.9-0.6-1.8-1.1c0-0.2,0.5-0.6,0.6-0.6c0.6,0.3,1.3,0.7,1.9,1
				C76.7,93.4,76.5,93.7,76.3,93.8z"/>
			<path fill-rule="evenodd" clip-rule="evenodd" d="M85.5,82.6c-0.9,0-1.7-0.6-1.5-1.1c0.1-0.2,0.6-0.6,0.7-0.5
				c0.6,0.3,1.1,0.7,1.6,1C85.9,82.2,85.6,82.5,85.5,82.6z"/>
			<path fill-rule="evenodd" clip-rule="evenodd" d="M78.1,86.8c-0.5-0.2-0.9-0.2-1.1-0.4c-0.2-0.2-0.2-0.6-0.3-0.9
				c0.3-0.1,0.5-0.2,0.8-0.2c0.2,0,0.5,0,0.6,0.1c0.3,0.2,0.6,0.4,0.9,0.7C78.7,86.3,78.4,86.6,78.1,86.8z"/>
			<path fill-rule="evenodd" clip-rule="evenodd" d="M76.3,79c-0.3-0.3-0.5-0.6-0.8-0.8c0.3-0.2,0.6-0.6,0.9-0.6
				c0.3,0,0.6,0.4,0.9,0.6C77,78.5,76.7,78.7,76.3,79z"/>
			<path fill-rule="evenodd" clip-rule="evenodd" d="M55,87.3c-0.3,0.4-0.5,0.6-0.7,0.8c-0.2-0.4-0.5-0.7-0.6-1.1
				c-0.1-0.2,0.3-0.5,0.4-0.7C54.4,86.6,54.7,86.9,55,87.3z"/>
			<path fill-rule="evenodd" clip-rule="evenodd" d="M70,82.2c-0.3-0.4-0.6-0.8-0.6-0.9c0.3-0.3,0.7-0.6,1.1-0.9
				c0.1,0.2,0.4,0.4,0.4,0.5C70.7,81.3,70.4,81.6,70,82.2z"/>
			<path fill-rule="evenodd" clip-rule="evenodd" d="M69,75.7c-0.3,0.9-0.8,1-1.3,0.7c-0.1-0.1-0.1-0.4-0.1-0.6
				C68,75.7,68.5,75.7,69,75.7z"/>
			<path fill-rule="evenodd" clip-rule="evenodd" d="M64.1,105.9c-0.2-0.2-0.4-0.4-0.5-0.6c-0.1-1.1-0.2-2.2-0.3-3.3
				c0-0.2,0.3-0.3,0.4-0.5c0.2,0.1,0.4,0.3,0.5,0.4c0.1,1.3,0.2,2.6,0.3,3.9C64.4,105.8,64.2,105.9,64.1,105.9z"/>
			<path fill-rule="evenodd" clip-rule="evenodd" d="M33.9,87.6c-0.5,0.7-0.8,1.2-1.1,1.6c-0.3-0.5-0.7-0.9-0.8-1.4
				c-0.1-0.6,0-1.3,0.8-1.3C33.1,86.6,33.4,87.1,33.9,87.6z"/>
			<path fill-rule="evenodd" clip-rule="evenodd" d="M66.4,104.2c0,0.5,0,1,0,1.4c0,0.2-0.2,0.3-0.3,0.5c-0.2-0.1-0.5-0.2-0.5-0.4
				c-0.1-1.1-0.1-2.2-0.1-3.4c0-0.1,0.3-0.3,0.4-0.3c0.2,0.1,0.4,0.3,0.4,0.4C66.4,103.2,66.4,103.7,66.4,104.2
				C66.4,104.2,66.4,104.2,66.4,104.2z"/>
			<path fill-rule="evenodd" clip-rule="evenodd" d="M105.7,95.3c0-1,0-2.1,0-3.1C106.4,92.7,106.6,94.3,105.7,95.3z"/>
			<path fill-rule="evenodd" clip-rule="evenodd" d="M138.7,59.4c-0.2-0.5-0.4-1-0.7-1.5c-0.1-0.3-0.6-0.5-0.9-0.5
				c-0.2,0-0.6,0.5-0.6,0.8c0,1.5,0,3.1,0.1,4.6c0,0.5,0.2,1.1,0.2,1.6c0.1,0,0.2,0,0.3,0c0.3-0.8,0.5-1.5,0.8-2.2
				c0.1,0.6,0.3,1.3,0.4,2c0.1,0,0.2,0,0.4,0c0,0,0,0,0-0.1C138.9,62.7,138.9,61,138.7,59.4z"/>
			<path fill-rule="evenodd" clip-rule="evenodd" d="M126.2,66.5c-0.2,0.2-0.3,0.3-0.6,0.7c-0.1-1.8-0.3-3.5-0.4-5.1
				c0-0.2,0.3-0.5,0.4-0.7c0.2,0.2,0.5,0.4,0.6,0.6c0.2,1,0.2,2,0.3,3.1c0.7-1.5,0.1-3-0.2-4.5c0.1,0,0.2-0.1,0.2-0.1
				c0.2,0.2,0.5,0.3,0.6,0.6c0.9,1.3,0.9,4.2,0.1,5.4C127,66.9,126.8,66.9,126.2,66.5z"/>
			<path fill-rule="evenodd" clip-rule="evenodd" d="M130.6,60.4c0.4,0.4,0.6,0.5,0.9,0.8c0-0.4,0-0.7,0.1-1c0.1-0.4,0.3-0.7,0.4-1
				c0.2,0.3,0.6,0.7,0.6,1c0,1.1-0.1,2.3-0.2,3.4c-0.1,0.7-0.4,1.4-1.3,1.4c-0.2,0-0.5-0.2-0.5-0.3C130.6,63.4,130.6,62,130.6,60.4z
				"/>
			<path fill-rule="evenodd" clip-rule="evenodd" d="M109.6,42.7c-0.6,0-1.2,0-1.8-0.1c-1.1-0.3-2.3-0.8-3.3-1.3
				c-0.2-0.1-0.4-0.6-0.4-0.8c0-0.2,0.5-0.4,0.7-0.4C105.6,40,109.1,41.8,109.6,42.7z"/>
			<path fill-rule="evenodd" clip-rule="evenodd" d="M124.7,48.5c0.4,0.2,1,0.5,1.2,0.9c0.6,1.3,0.9,2.6,1.4,3.9
				c0,0.1-0.2,0.5-0.3,0.5c-0.2,0-0.5-0.1-0.6-0.3c-0.2-0.4-0.3-0.8-0.4-1.2c-0.2-1-0.6-1.8-1.5-2.3c-0.1-0.1-0.2-0.1-0.3-0.2
				c-0.2-0.3-0.4-0.6-0.6-0.9C123.9,48.8,124.2,48.7,124.7,48.5z"/>
			<path fill-rule="evenodd" clip-rule="evenodd" d="M131.3,52.5c-1-1.7-1.9-3.4-3-5.3c1.7,0.6,2.4,1.8,3.1,3
				C131.9,51.2,131.8,51.8,131.3,52.5z"/>
			<path fill-rule="evenodd" clip-rule="evenodd" d="M133.7,59c1.4,0.8,1.6,2.1,1.7,3.5c0.1,0.8,0.1,1.7-1.1,2.2
				C134.7,62.6,134.2,60.8,133.7,59z"/>
			<path fill-rule="evenodd" clip-rule="evenodd" d="M129.3,65.3c-0.2-1.5-0.4-2.9-0.5-4.2c0-0.2,0.1-0.5,0.2-0.5
				c0.1-0.1,0.4,0,0.6,0.1c0.2,0.1,0.3,0.4,0.3,0.6C130.1,62.6,130.1,63.9,129.3,65.3z"/>
			<path fill-rule="evenodd" clip-rule="evenodd" d="M124.6,92c-0.7-0.9-0.7-2.2-0.1-3c0.2-0.2,0.5-0.3,0.8-0.4
				c0.1,0.3,0.3,0.6,0.2,0.8c-0.1,0.9-0.4,1.7-0.6,2.6C124.8,92.1,124.7,92.1,124.6,92z"/>
			<path fill-rule="evenodd" clip-rule="evenodd" d="M124.5,65.4c-0.7-1-0.7-2.2-0.6-3.4c0-0.2,0.3-0.3,0.5-0.5
				c0.2,0.2,0.5,0.4,0.5,0.6c0,1.1,0,2.2,0,3.3C124.8,65.3,124.6,65.3,124.5,65.4z"/>
			<path fill-rule="evenodd" clip-rule="evenodd" d="M111.9,39.4c-1.3,0-2.2-0.4-2.7-1.4C110.3,38.1,111.1,38.6,111.9,39.4z"/>
			<path fill-rule="evenodd" clip-rule="evenodd" d="M129,89.4c0-0.7,0.1-1.3,0.2-1.9c0-0.1,0.3-0.3,0.4-0.3
				c0.2,0.1,0.4,0.3,0.4,0.5c-0.1,0.6-0.3,1.2-0.4,1.8C129.3,89.4,129.2,89.4,129,89.4z"/>
		</g>
	</g>
</g>
</svg>
