<?xml version="1.0" encoding="utf-8"?>
<!-- Generator: Adobe Illustrator 17.1.0, SVG Export Plug-In . SVG Version: 6.00 Build 0)  -->
<!DOCTYPE svg PUBLIC "-//W3C//DTD SVG 1.1//EN" "http://www.w3.org/Graphics/SVG/1.1/DTD/svg11.dtd">
<svg version="1.1" id="Layer_1" xmlns="http://www.w3.org/2000/svg" xmlns:xlink="http://www.w3.org/1999/xlink" x="0px" y="0px"
	 viewBox="0 90 612 611.8" enable-background="new 0 90 612 611.8" xml:space="preserve">
<g>
	<path fill="#ffffff" d="M305.7,90c168.2,0,305.7,137.5,305.7,306.3S473.9,702,305.7,702C136.8,702,0,564.5,0,396.3
		S136.8,90,305.7,90z M305.7,688.9c161,0,292.6-131.6,292.6-292.6S466.7,103.7,305.7,103.7C144,103.7,13.1,235.3,13.1,396.3
		S144,688.9,305.7,688.9z"/>
</g>
<g>
	<path fill="#ffffff" d="M258.5,258.2c2.6,0,5.2,0.7,7.2,2.6l127.6,128.3c2,2,2.6,4.6,2.6,7.2s-1.3,5.2-2.6,7.2L265.7,531.2
		c-3.9,3.9-9.8,3.9-13.7,0c-3.9-3.9-3.9-9.8,0-13.7l120.4-121.1L251.3,275.2c-3.9-3.9-3.9-9.8,0-13.7
		C253.3,259.5,255.9,258.2,258.5,258.2z"/>
</g>
</svg>
